Data_Summary
…
mixed
11.73
0.27

white
11.46
0.22

Alone, the effects of the difficulty of the visual task changed the steering deviation so that (1) at the easiest difficulty, steering was the worst (2) at the highest difficulty, steering was the best, and (3) when participants didnt know whether to expect easy or difficult trials, steering was in between. In this case, participants may have been overloaded for the 3 tasks, and so priority could be given to a task that they thought they could complete.

clean.choiceac %>%
  group_by(subid, condition) %>%
  dplyr::summarise(trials_completed = n())

## Source: local data frame [60 x 3]
## Groups: subid [?]
## 
##     subid condition trials_completed
##    <fctr>    <fctr>            <int>
## 1      04     green              160
## 2      04     white              160
## 3      04     mixed              160
## 4      05     green              160
## 5      05     white              120
## 6      05     mixed              160
## 7      06     green              115
## 8      06     white              105
## 9      06     mixed              123
## 10     07     green              127
## # ... with 50 more rows
